Sparse Vectors for Use in Data Frames • sparsevctrs
…
These sparse vectors are compatible with tibbles and data frames.

library(tibble)
set.seed(1234)

tibble(
  x = sample(1:1000),
  y = sparse_double(1, 7, 1000)
)
#> # A tibble: 1,000 × 2
#>        x     y
#>    <int> <dbl>
#>  1   284     0
#>  2   848     0
#>  3   918     0
#>  4   101     0
#>  5   623     0
#>  6   905     0
#>  7   645     1
#>  8   934     0
#>  9   400     0
#> 10   900     0
#> # ℹ 990 more rows
…
